MIPS-MULTI_v10/TopDE.vcd
$comment
Copyright (C) 1991-2009 Altera Corporation
Your use of Altera Corporation's design tools, logic functions 
and other software and tools, and its AMPP partner logic 
functions, and any output files from any of the foregoing 
(including device programming or simulation files), and any 
associated documentation or information are expressly subject 
to the terms and conditions of the Altera Program License 
Subscription Agreement, Altera MegaCore Function License 
Agreement, or other applicable license agreement, including, 
without limitation, that your use is for the sole purpose of 
programming logic devices manufactured by Altera and sold by 
Altera or its authorized distributors.  Please refer to the 
applicable agreement for further details.
$end

$date 
  06/29/2012 00:33:09 
$end
$version 
 QUARTUS_VCD_EXPORT 1.0 
$end
$timescale
  1 ps
$end
$scope module TopDE $end
$var reg 1 ! iCLK_50 $end
$var reg 4 " iKEY[3:0] $end
$var reg 1 # Reset $end
$var reg 18 $ iSW[17:0] $end
$var reg 8 % oLEDG[0:7] $end
$var reg 1 & oLEDG[8] $end
$var reg 18 ' oLEDR[17:0] $end
$var reg 32 ( oOUTPUT[31:0] $end
$scope module Processor $end
$var reg 32 ) PC[31:0] $end
$var reg 32 * IR[31:0] $end
$var reg 32 + MDR[31:0] $end
$scope module Cont0 $end
$var real 1 , pr_state $end
$upscope $end
$upscope $end
$scope module Mono1 $end
$var reg 1 - clock_ctrl $end
$upscope $end
$upscope $end
$enddefinitions $end
#0
$dumpvars
0!
b110 "
0#
b10000000000000000 $
b0 %
0&
b100010001000 '
b0 (
b0 )
b0 *
b0 +
rpr_state.FETCH ,
0-
$end
#50000
1!
#52841
1-
#60000
b100 "
#100000
0!
#101891
0-
#150000
1!
#151891
1-
#200000
0!
#201891
0-
#230000
b110 "
#250000
1!
b10 "
#251891
1-
#300000
0!
#301891
0-
#350000
1!
#351891
1-
#400000
0!
#401891
0-
#450000
1!
#451891
1-
#490000
b110 "
#500000
0!
#501891
0-
#550000
1!
#551891
1-
#600000
0!
#601891
0-
#650000
1!
#651891
1-
#655912
rUndefined ,
#658022
b100000000000000000000000000000 +
#658024
b100100000000000000000000000000 *
b100100000000000000000000000000 +
#658034
b100100000010000000000000000000 *
b100100000010000000000000000000 +
#658041
b100 )
b100100000010000100000000000000 +
#658042
1#
#658044
b100100000010000100000000000000 *
#658045
rpr_state.DECODE ,
#659138
1&
#662227
b10001000 '
#663429
b1000010001000 '
#663544
b1000010000000 '
#664749
b10000000 %
#665027
b1000000000000 '
#665318
b1000000010000 '
#666216
b1000000011000 '
#700000
0!
#701891
0-
#750000
1!
#751891
1-
#800000
0!
#801891
0-
#850000
1!
#851891
1-
#880000
b111 "
#900000
0!
#901891
0-
#950000
1!
#951891
1-
#1000000
0!
#1001891
0-
#1050000
1!
#1051891
1-
#1100000
0!
#1101891
0-
#1150000
1!
#1151891
1-
#1200000
0!
#1201891
0-
#1250000
1!
#1251891
1-
#1259138
0&
#1300000
0!
#1301891
0-
#1350000
1!
#1351891
1-
#1400000
0!
#1401891
0-
#1450000
1!
#1451891
1-
#1500000
0!
#1501891
0-
#1550000
1!
#1551891
1-
#1600000
0!
#1601891
0-
#1650000
1!
#1651891
1-
#1700000
0!
#1701891
0-
#1750000
1!
#1751891
1-
#1800000
0!
#1801891
0-
#1850000
1!
#1851891
1-
#1855912
rUndefined ,
#1858041
b0 )
#1858042
0#
#1858045
rpr_state.FETCH ,
#1859138
1&
#1862227
b1100000011000 '
#1863429
b100000011000 '
#1864749
b0 %
#1865027
b100010011000 '
#1865318
b100010001000 '
#1900000
0!
#1901891
0-
#1950000
1!
#1951891
1-
#2000000
0!
#2001891
0-
#2050000
1!
#2051891
1-
#2100000
0!
#2101891
0-
#2150000
1!
#2151891
1-
#2200000
0!
#2201891
0-
#2250000
1!
#2251891
1-
#2300000
0!
#2301891
0-
#2350000
1!
#2351891
1-
#2400000
0!
#2401891
0-
#2450000
1!
#2451891
1-
#2459138
0&
#2500000
0!
#2501891
0-
#2550000
1!
#2551891
1-
#2600000
0!
#2601891
0-
#2650000
1!
#2651891
1-
#2700000
0!
#2701891
0-
#2750000
1!
#2751891
1-
#2800000
0!
#2801891
0-
#2850000
1!
#2851891
1-
#2900000
0!
#2901891
0-
#2950000
1!
#2951891
1-
#3000000
0!
#3001891
0-
#3050000
1!
#3051891
1-
#3055912
rUndefined ,
#3058041
b100 )
#3058045
rpr_state.DECODE ,
#3059138
1&
#3062227
b10001000 '
#3063429
b1000010001000 '
#3063544
b1000010000000 '
#3064749
b10000000 %
#3065027
b1000000000000 '
#3065318
b1000000010000 '
#3066216
b1000000011000 '
#3100000
0!
#3101891
0-
#3150000
1!
#3151891
1-
#3200000
0!
#3201891
0-
#3250000
1!
#3251891
1-
#3300000
0!
#3301891
0-
#3350000
1!
#3351891
1-
#3400000
0!
#3401891
0-
#3450000
1!
#3451891
1-
#3500000
0!
#3501891
0-
#3550000
1!
#3551891
1-
#3600000
0!
#3601891
0-
#3650000
1!
#3651891
1-
#3659138
0&
#3700000
0!
#3701891
0-
#3750000
1!
#3751891
1-
#3800000
0!
#3801891
0-
#3850000
1!
#3851891
1-
#3900000
0!
#3901891
0-
#3950000
1!
#3951891
1-
#4000000
0!
#4001891
0-
#4050000
1!
#4051891
1-
#4100000
0!
#4101891
0-
#4150000
1!
#4151891
1-
#4200000
0!
#4201891
0-
#4250000
1!
#4251891
1-
#4258003
b10100101000010000100000000000000 +
#4258022
b10000101000010000100000000000000 +
#4258034
b10001101000010000100000000000000 +
#4258041
b10001101000010000000000000000000 +
#4258045
rpr_state.IFMTA ,
#4259138
1&
#4265413
b1001000000011000 '
#4265679
b1001000001011000 '
#4266216
b1001000001010000 '
#4266610
b1011000001010000 '
#4267366
b1010000001010000 '
#4300000
0!
#4301891
0-
#4350000
1!
#4351891
1-
#4400000
0!
#4401891
0-
#4450000
1!
#4451891
1-
#4500000
0!
#4501891
0-
#4550000
1!
#4551891
1-
#4600000
0!
#4601891
0-
#4650000
1!
#4651891
1-
#4700000
0!
#4701891
0-
#4750000
1!
#4751891
1-
#4800000
0!
#4801891
0-
#4850000
1!
#4851891
1-
#4859138
0&
#4900000
0!
#4901891
0-
#4950000
1!
#4951891
1-
#5000000
0!
#5001891
0-
#5050000
1!
#5051891
1-
#5100000
0!
#5101891
0-
#5150000
1!
#5151891
1-
#5200000
0!
#5201891
0-
#5250000
1!
#5251891
1-
#5300000
0!
#5301891
0-
#5350000
1!
#5351891
1-
#5400000
0!
#5401891
0-
#5450000
1!
#5451891
1-
#5458036
rUndefined ,
#5458045
rpr_state.IFMT2 ,
#5459138
1&
#5465286
b1010000001000000 '
#5465679
b1010000000000000 '
#5465807
b1010000100000000 '
#5467366
b1011000100000000 '
#5500000
0!
#5501891
0-
#5550000
1!
#5551891
1-
#5600000
0!
#5601891
0-
#5650000
1!
#5651891
1-
#5700000
0!
#5701891
0-
#5750000
1!
#5751891
1-
#5800000
0!
#5801891
0-
#5850000
1!
#5851891
1-
#5900000
0!
#5901891
0-
#5950000
1!
#5951891
1-
#6000000
0!
#6001891
0-
#6050000
1!
#6051891
1-
#6059138
0&
#6100000
0!
#6101891
0-
#6150000
1!
#6151891
1-
#6200000
0!
#6201891
0-
#6250000
1!
#6251891
1-
#6300000
0!
#6301891
0-
#6350000
1!
#6351891
1-
#6400000
0!
#6401891
0-
#6450000
1!
#6451891
1-
#6500000
0!
#6501891
0-
#6550000
1!
#6551891
1-
#6600000
0!
#6601891
0-
#6650000
1!
#6651891
1-
#6655912
rUndefined ,
#6658036
rpr_state.FETCH ,
#6659138
1&
#6662227
b1011100100000000 '
#6663429
b1010100100000000 '
#6663544
b1010100100001000 '
#6664944
b10100100001000 '
#6665027
b10100110001000 '
#6665324
b100110001000 '
#6665807
b100010001000 '
#6671706
b100000000000000 (
#6700000
0!
#6701891
0-
#6750000
1!
#6751891
1-
#6800000
0!
#6801891
0-
#6850000
1!
#6851891
1-
#6900000
0!
#6901891
0-
#6950000
1!
#6951891
1-
#7000000
0!
#7001891
0-
#7050000
1!
#7051891
1-
#7100000
0!
#7101891
0-
#7150000
1!
#7151891
1-
#7200000
0!
#7201891
0-
#7250000
1!
#7251891
1-
#7259138
0&
#7300000
0!
#7301891
0-
#7350000
1!
#7351891
1-
#7400000
0!
#7401891
0-
#7450000
1!
#7451891
1-
#7500000
0!
#7501891
0-
#7550000
1!
#7551891
1-
#7600000
0!
#7601891
0-
#7650000
1!
#7651891
1-
#7700000
0!
#7701891
0-
#7750000
1!
#7751891
1-
#7800000
0!
#7801891
0-
#7850000
1!
#7851891
1-
#7855912
rUndefined ,
#7858005
b100101000010000100000000000000 *
#7858012
b1100 )
#7858018
b10100101000010000100000000000000 *
#7858024
b10000101000010000100000000000000 *
#7858034
b10001101000010000100000000000000 *
#7858041
b1000 )
#7858044
b10001101000010000000000000000000 *
#7858045
rpr_state.DECODE ,
#7859138
1&
#7862227
b10001000 '
#7863082
b11000000 %
#7863429
b1000010001000 '
#7863544
b1000010000000 '
#7864749
b1000000 %
#7865027
b1000000000000 '
#7865318
b1000000010000 '
#7866216
b1000000011000 '
#7900000
0!
#7901891
0-
#7950000
1!
#7951891
1-
#8000000
0!
#8001891
0-
#8050000
1!
#8051891
1-
#8100000
0!
#8101891
0-
#8150000
1!
#8151891
1-
#8200000
0!
#8201891
0-
#8250000
1!
#8251891
1-
#8300000
0!
#8301891
0-
#8350000
1!
#8351891
1-
#8400000
0!
#8401891
0-
#8450000
1!
#8451891
1-
#8459138
0&
#8500000
0!
#8501891
0-
#8550000
1!
#8551891
1-
#8600000
0!
#8601891
0-
#8650000
1!
#8651891
1-
#8700000
0!
#8701891
0-
#8750000
1!
#8751891
1-
#8800000
0!
#8801891
0-
#8850000
1!
#8851891
1-
#8900000
0!
#8901891
0-
#8950000
1!
#8951891
1-
#9000000
0!
#9001891
0-
#9050000
1!
#9051891
1-
#9058003
b1100000010000000000000000010 +
#9058024
b1000000010000000000000000010 +
#9058034
b1000000000000000000000000010 +
#9058045
rUndefined ,
#9058046
rpr_state.LWSW ,
#9059138
1&
#9065399
b1000001011000 '
#9066216
b1000001010000 '
#9066830
b11000001010000 '
#9067586
b10000001010000 '
#9100000
0!
#9101891
0-
#9150000
1!
#9151891
1-
#9200000
0!
#9201891
0-
#9250000
1!
#9251891
1-
#9300000
0!
#9301891
0-
#9350000
1!
#9351891
1-
#9400000
0!
#9401891
0-
#9450000
1!
#9451891
1-
#9500000
0!
#9501891
0-
#9550000
1!
#9551891
1-
#9600000
0!
#9601891
0-
#9650000
1!
#9651891
1-
#9659138
0&
#9700000
0!
#9701891
0-
#9750000
1!
#9751891
1-
#9800000
0!
#9801891
0-
#9850000
1!
#9851891
1-
#9900000
0!
#9901891
0-
#9950000
1!
#9951891
1-
#10000000
0!
#10001891
0-
#10050000
1!
#10051891
1-
#10100000
0!
#10101891
0-
#10150000
1!
#10151891
1-
#10200000
0!
#10201891
0-
#10250000
1!
#10251891
1-
#10255618
rUndefined ,
#10259138
1&
#10261554
b10001001010000 '
#10261689
b10101001010000 '
#10264963
b10101101010000 '
#10265399
b10101100010000 '
#10265426
b10101100000000 '
#10266840
b110101100000000 '
#10300000
0!
#10301891
0-
#10350000
1!
#10351891
1-
#10400000
0!
#10401891
0-
#10450000
1!
#10451891
1-
#10500000
0!
#10501891
0-
#10550000
1!
#10551891
1-
#10600000
0!
#10601891
0-
#10650000
1!
#10651891
1-
#10700000
0!
#10701891
0-
#10750000
1!
#10751891
1-
#10800000
0!
#10801891
0-
#10850000
1!
#10851891
1-
#10859138
0&
#10900000
0!
#10901891
0-
#10950000
1!
#10951891
1-
#11000000
0!
#11001891
0-
#11050000
1!
#11051891
1-
#11100000
0!
#11101891
0-
#11150000
1!
#11151891
1-
#11200000
0!
#11201891
0-
#11250000
1!
#11251891
1-
#11300000
0!
#11301891
0-
#11350000
1!
#11351891
1-
#11400000
0!
#11401891
0-
#11450000
1!
#11451891
1-
#11455618
rpr_state.LW2 ,
#11455912
rUndefined ,
#11458004
b1000000000000000000001000010 +
#11458011
b1000000000000000000001000011 +
#11458012
b1000000000000000000001001111 +
#11458014
rpr_state.FETCH ,
#11458034
b1001111 +
#11459138
1&
#11461554
b110100100000000 '
#11461689
b110000100000000 '
#11462227
b110100100000000 '
#11463393
b100100100000000 '
#11463544
b100100100001000 '
#11464963
b100100000001000 '
#11465027
b100100010001000 '
#11466840
b100010001000 '
#11468883
b100000000000010 (
#11469575
b1000000000000100000000000010 (
#11471706
b1000000000000000000000000010 (
#11500000
0!
#11501891
0-
#11550000
1!
#11551891
1-
#11600000
0!
#11601891
0-
#11650000
1!
#11651891
1-
#11700000
0!
#11701891
0-
#11750000
1!
#11751891
1-
#11800000
0!
#11801891
0-
#11850000
1!
#11851891
1-
#11900000
0!
#11901891
0-
#11950000
1!
#11951891
1-
#12000000
0!
#12001891
0-
#12050000
1!
#12051891
1-
#12059138
0&
#12100000
0!
#12101891
0-
#12150000
1!
#12151891
1-
#12200000
0!
#12201891
0-
#12250000
1!
#12251891
1-
#12300000
0!
#12301891
0-
#12350000
1!
#12351891
1-
#12400000
0!
#12401891
0-
#12450000
1!
#12451891
1-
#12500000
0!
#12501891
0-
#12550000
1!
#12551891
1-
#12600000
0!
#12601891
0-
#12650000
1!
#12651891
1-
#12655912
rUndefined ,
#12658004
b1111 +
#12658005
b10001100000010000000000000000000 *
#12658011
b1110 +
#12658012
b10 +
#12658018
b1100000010000000000000000000 *
#12658024
b1000000010000000000000000000 *
#12658034
b1000000000000000000000000000 *
b1000000000000000000000000010 +
#12658041
b1100 )
#12658043
b1000000000000000000000000010 *
#12658045
rpr_state.DECODE ,
#12659138
1&
#12662227
b10001000 '
#12663429
b1000010001000 '
#12663544
b1000010000000 '
#12664749
b11000000 %
#12665027
b1000000000000 '
#12665318
b1000000010000 '
#12666216
b1000000011000 '
#12700000
0!
#12701891
0-
#12750000
1!
#12751891
1-
#12800000
0!
#12801891
0-
#12850000
1!
#12851891
1-
#12900000
0!
#12901891
0-
#12950000
1!
#12951891
1-
#13000000
0!
#13001891
0-
#13050000
1!
#13051891
1-
#13100000
0!
#13101891
0-
#13150000
1!
#13151891
1-
#13200000
0!
#13201891
0-
#13250000
1!
#13251891
1-
#13259138
0&
#13300000
0!
#13301891
0-
#13350000
1!
#13351891
1-
#13400000
0!
#13401891
0-
#13450000
1!
#13451891
1-
#13500000
0!
#13501891
0-
#13550000
1!
#13551891
1-
#13600000
0!
#13601891
0-
#13650000
1!
#13651891
1-
#13700000
0!
#13701891
0-
#13750000
1!
#13751891
1-
#13800000
0!
#13801891
0-
#13850000
1!
#13851891
1-
#13858002
b1000000001000000000000000010 +
#13858003
b1000000001000000000000000000 +
#13858011
b1000000001000000000000000001 +
#13858022
b101000000001000000000000000001 +
#13858024
b101100000001000000000000000001 +
rUndefined ,
#13858034
b100100000001000000000000000001 +
#13858045
rpr_state.JUMP ,
#13859138
1&
#13864492
b1001000000011000 '
#13864872
b1011000000011000 '
#13865318
b1011000000001000 '
#13865758
b1010000000001000 '
#13865789
b1010000000001010 '
#13866052
b1110000000001010 '
#13866216
b1110000000000010 '
#13867356
b1110000010000010 '
#13900000
0!
#13901891
0-
#13950000
1!
#13951891
1-
#14000000
0!
#14001891
0-
#14050000
1!
#14051891
1-
#14100000
0!
#14101891
0-
#14150000
1!
#14151891
1-
#14200000
0!
#14201891
0-
#14250000
1!
#14251891
1-
#14300000
0!
#14301891
0-
#14350000
1!
#14351891
1-
#14400000
0!
#14401891
0-
#14450000
1!
#14451891
1-
#14459138
0&
#14500000
0!
#14501891
0-
#14550000
1!
#14551891
1-
#14600000
0!
#14601891
0-
#14650000
1!
#14651891
1-
#14700000
0!
#14701891
0-
#14750000
1!
#14751891
1-
#14800000
0!
#14801891
0-
#14850000
1!
#14851891
1-
#14900000
0!
#14901891
0-
#14950000
1!
#14951891
1-
#15000000
0!
#15001891
0-
#15050000
1!
#15051891
1-
#15055912
rUndefined ,
#15058024
rpr_state.FETCH ,
#15058041
b1000 )
#15059138
1&
#15062227
b1110100010000010 '
#15063544
b1110100010001010 '
#15064492
b110100010001010 '
#15064749
b1000000 %
#15064872
b100100010001010 '
#15065789
b100100010001000 '
#15066052
b100010001000 '
#15100000
0!
#15101891
0-
#15150000
1!
#15151891
1-
#15200000
0!
#15201891
0-
#15250000
1!
#15251891
1-
#15300000
0!
#15301891
0-
#15350000
1!
#15351891
1-
#15400000
0!
#15401891
0-
#15450000
1!
#15451891
1-
#15500000
0!
#15501891
0-
#15550000
1!
#15551891
1-
#15600000
0!
#15601891
0-
#15650000
1!
#15651891
1-
#15659138
0&
#15700000
0!
#15701891
0-
#15750000
1!
#15751891
1-
#15800000
0!
#15801891
0-
#15850000
1!
#15851891
1-
#15900000
0!
#15901891
0-
#15950000
1!
#15951891
1-
#16000000
0!
#16001891
0-
#16050000
1!
#16051891
1-
#16100000
0!
#16101891
0-
#16150000
1!
#16151891
1-
#16200000
0!
#16201891
0-
#16250000
1!
#16251891
1-
#16255912
rUndefined ,
#16258002
b100100000000000000000000000001 +
#16258003
b100100000000000000000000000011 +
#16258011
b100100000000000000000000000010 +
#16258022
b100000000000000000000000010 +
#16258024
b10 +
#16258034
b1000000000000000000000000010 +
#16258041
b1100 )
#16258045
rpr_state.DECODE ,
#16259138
1&
#16262227
b10001000 '
#16263429
b1000010001000 '
#16263544
b1000010000000 '
#16264749
b11000000 %
#16265027
b1000000000000 '
#16265318
b1000000010000 '
#16266216
b1000000011000 '
#16300000
0!
#16301891
0-
#16350000
1!
#16351891
1-
#16400000
0!
#16401891
0-
#16450000
1!
#16451891
1-
#16500000
0!
#16501891
0-
#16550000
1!
#16551891
1-
#16600000
0!
#16601891
0-
#16650000
1!
#16651891
1-
#16700000
0!
#16701891
0-
#16750000
1!
#16751891
1-
#16800000
0!
#16801891
0-
#16850000
1!
#16851891
1-
#16859138
0&
#16900000
0!
#16901891
0-
#16950000
1!
#16951891
1-
#17000000
0!
#17001891
0-
#17050000
1!
#17051891
1-
#17100000
0!
#17101891
0-
#17150000
1!
#17151891
1-
#17200000
0!
#17201891
0-
#17250000
1!
#17251891
1-
#17300000
0!
#17301891
0-
#17350000
1!
#17351891
1-
#17400000
0!
#17401891
0-
#17450000
1!
#17451891
1-
#17458002
b1000000001000000000000000010 +
#17458003
b1000000001000000000000000000 +
#17458011
b1000000001000000000000000001 +
#17458022
b101000000001000000000000000001 +
#17458024
b101100000001000000000000000001 +
rUndefined ,
#17458034
b100100000001000000000000000001 +
#17458045
rpr_state.JUMP ,
#17459138
1&
#17464492
b1001000000011000 '
#17464872
b1011000000011000 '
#17465318
b1011000000001000 '
#17465758
b1010000000001000 '
#17465789
b1010000000001010 '
#17466052
b1110000000001010 '
#17466216
b1110000000000010 '
#17467356
b1110000010000010 '
#17500000
0!
#17501891
0-
#17550000
1!
#17551891
1-
#17600000
0!
#17601891
0-
#17650000
1!
#17651891
1-
#17700000
0!
#17701891
0-
#17750000
1!
#17751891
1-
#17800000
0!
#17801891
0-
#17850000
1!
#17851891
1-
#17900000
0!
#17901891
0-
#17950000
1!
#17951891
1-
#18000000
0!
#18001891
0-
#18050000
1!
#18051891
1-
#18059138
0&
#18100000
0!
#18101891
0-
#18150000
1!
#18151891
1-
#18200000
0!
#18201891
0-
#18250000
1!
#18251891
1-
#18300000
0!
#18301891
0-
#18350000
1!
#18351891
1-
#18400000
0!
#18401891
0-
#18450000
1!
#18451891
1-
#18500000
0!
#18501891
0-
#18550000
1!
#18551891
1-
#18600000
0!
#18601891
0-
#18650000
1!
#18651891
1-
#18655912
rUndefined ,
#18658024
rpr_state.FETCH ,
#18658041
b1000 )
#18659138
1&
#18662227
b1110100010000010 '
#18663544
b1110100010001010 '
#18664492
b110100010001010 '
#18664749
b1000000 %
#18664872
b100100010001010 '
#18665789
b100100010001000 '
#18666052
b100010001000 '
#18700000
0!
#18701891
0-
#18750000
1!
#18751891
1-
#18800000
0!
#18801891
0-
#18850000
1!
#18851891
1-
#18900000
0!
#18901891
0-
#18950000
1!
#18951891
1-
#19000000
0!
#19001891
0-
#19050000
1!
#19051891
1-
#19100000
0!
#19101891
0-
#19150000
1!
#19151891
1-
#19200000
0!
#19201891
0-
#19250000
1!
#19251891
1-
#19259138
0&
#19300000
0!
#19301891
0-
#19350000
1!
#19351891
1-
#19400000
0!
#19401891
0-
#19450000
1!
#19451891
1-
#19500000
0!
#19501891
0-
#19550000
1!
#19551891
1-
#19600000
0!
#19601891
0-
#19650000
1!
#19651891
1-
#19700000
0!
#19701891
0-
#19750000
1!
#19751891
1-
#19800000
0!
#19801891
0-
#19850000
1!
#19851891
1-
#19855912
rUndefined ,
#19858002
b100100000000000000000000000001 +
#19858003
b100100000000000000000000000011 +
#19858011
b100100000000000000000000000010 +
#19858022
b100000000000000000000000010 +
#19858024
b10 +
#19858034
b1000000000000000000000000010 +
#19858041
b1100 )
#19858045
rpr_state.DECODE ,
#19859138
1&
#19862227
b10001000 '
#19863429
b1000010001000 '
#19863544
b1000010000000 '
#19864749
b11000000 %
#19865027
b1000000000000 '
#19865318
b1000000010000 '
#19866216
b1000000011000 '
#19900000
0!
#19901891
0-
#19950000
1!
#19951891
1-
#20000000
0!
#20001891
0-
#20050000
1!
#20051891
1-
#20100000
0!
#20101891
0-
#20150000
1!
#20151891
1-
#20200000
0!
#20201891
0-
#20250000
1!
#20251891
1-
#20300000
0!
#20301891
0-
#20350000
1!
#20351891
1-
#20400000
0!
#20401891
0-
#20450000
1!
#20451891
1-
#20459138
0&
#20500000
0!
#20501891
0-
#20550000
1!
#20551891
1-
#20600000
0!
#20601891
0-
#20650000
1!
#20651891
1-
#20700000
0!
#20701891
0-
#20750000
1!
#20751891
1-
#20800000
0!
#20801891
0-
#20850000
1!
#20851891
1-
#20900000
0!
#20901891
0-
#20950000
1!
#20951891
1-
#21000000
0!
#21001891
0-
#21050000
1!
#21051891
1-
#21058002
b1000000001000000000000000010 +
#21058003
b1000000001000000000000000000 +
#21058011
b1000000001000000000000000001 +
#21058022
b101000000001000000000000000001 +
#21058024
b101100000001000000000000000001 +
rUndefined ,
#21058034
b100100000001000000000000000001 +
#21058045
rpr_state.JUMP ,
#21059138
1&
#21064492
b1001000000011000 '
#21064872
b1011000000011000 '
#21065318
b1011000000001000 '
#21065758
b1010000000001000 '
#21065789
b1010000000001010 '
#21066052
b1110000000001010 '
#21066216
b1110000000000010 '
#21067356
b1110000010000010 '
#21100000
0!
#21101891
0-
#21150000
1!
#21151891
1-
#21200000
0!
#21201891
0-
#21250000
1!
#21251891
1-
#21300000
0!
#21301891
0-
#21350000
1!
#21351891
1-
#21400000
0!
#21401891
0-
#21450000
1!
#21451891
1-
#21500000
0!
#21501891
0-
#21550000
1!
#21551891
1-
#21600000
0!
#21601891
0-
#21650000
1!
#21651891
1-
#21659138
0&
#21700000
0!
#21701891
0-
#21750000
1!
#21751891
1-
#21800000
0!
#21801891
0-
#21850000
1!
#21851891
1-
#21900000
0!
#21901891
0-
#21950000
1!
#21951891
1-
#22000000
0!
#22001891
0-
#22050000
1!
#22051891
1-
#22100000
0!
#22101891
0-
#22150000
1!
#22151891
1-
#22200000
0!
#22201891
0-
#22250000
1!
#22251891
1-
#22255912
rUndefined ,
#22258024
rpr_state.FETCH ,
#22258041
b1000 )
#22259138
1&
#22262227
b1110100010000010 '
#22263544
b1110100010001010 '
#22264492
b110100010001010 '
#22264749
b1000000 %
#22264872
b100100010001010 '
#22265789
b100100010001000 '
#22266052
b100010001000 '
#22300000
0!
#22301891
0-
#22350000
1!
#22351891
1-
#22400000
0!
#22401891
0-
#22450000
1!
#22451891
1-
#22500000
0!
#22501891
0-
#22550000
1!
#22551891
1-
#22600000
0!
#22601891
0-
#22650000
1!
#22651891
1-
#22700000
0!
#22701891
0-
#22750000
1!
#22751891
1-
#22800000
0!
#22801891
0-
#22850000
1!
#22851891
1-
#22859138
0&
#22900000
0!
#22901891
0-
#22950000
1!
#22951891
1-
#23000000
0!
#23001891
0-
#23050000
1!
#23051891
1-
#23100000
0!
#23101891
0-
#23150000
1!
#23151891
1-
#23200000
0!
#23201891
0-
#23250000
1!
#23251891
1-
#23300000
0!
#23301891
0-
#23350000
1!
#23351891
1-
#23400000
0!
#23401891
0-
#23450000
1!
#23451891
1-
#23455912
rUndefined ,
#23458002
b100100000000000000000000000001 +
#23458003
b100100000000000000000000000011 +
#23458011
b100100000000000000000000000010 +
#23458022
b100000000000000000000000010 +
#23458024
b10 +
#23458034
b1000000000000000000000000010 +
#23458041
b1100 )
#23458045
rpr_state.DECODE ,
#23459138
1&
#23462227
b10001000 '
#23463429
b1000010001000 '
#23463544
b1000010000000 '
#23464749
b11000000 %
#23465027
b1000000000000 '
#23465318
b1000000010000 '
#23466216
b1000000011000 '
#23500000
0!
#23501891
0-
#23550000
1!
#23551891
1-
#23600000
0!
#23601891
0-
#23650000
1!
#23651891
1-
#23700000
0!
#23701891
0-
#23750000
1!
#23751891
1-
#23800000
0!
#23801891
0-
#23850000
1!
#23851891
1-
#23900000
0!
#23901891
0-
#23950000
1!
#23951891
1-
#24000000
0!
#24001891
0-
#24050000
1!
#24051891
1-
#24059138
0&
#24100000
0!
#24101891
0-
#24150000
1!
#24151891
1-
#24200000
0!
#24201891
0-
#24250000
1!
#24251891
1-
#24300000
0!
#24301891
0-
#24350000
1!
#24351891
1-
#24400000
0!
#24401891
0-
#24450000
1!
#24451891
1-
#24500000
0!
#24501891
0-
#24550000
1!
#24551891
1-
#24600000
0!
#24601891
0-
#24650000
1!
#24651891
1-
#24658002
b1000000001000000000000000010 +
#24658003
b1000000001000000000000000000 +
#24658011
b1000000001000000000000000001 +
#24658022
b101000000001000000000000000001 +
#24658024
b101100000001000000000000000001 +
rUndefined ,
#24658034
b100100000001000000000000000001 +
#24658045
rpr_state.JUMP ,
#24659138
1&
#24664492
b1001000000011000 '
#24664872
b1011000000011000 '
#24665318
b1011000000001000 '
#24665758
b1010000000001000 '
#24665789
b1010000000001010 '
#24666052
b1110000000001010 '
#24666216
b1110000000000010 '
#24667356
b1110000010000010 '
#24700000
0!
#24701891
0-
#24750000
1!
#24751891
1-
#24800000
0!
#24801891
0-
#24850000
1!
#24851891
1-
#24900000
0!
#24901891
0-
#24950000
1!
#24951891
1-
#25000000
0!
#25001891
0-
#25050000
1!
#25051891
1-
#25100000
0!
#25101891
0-
#25150000
1!
#25151891
1-
#25200000
0!
#25201891
0-
#25250000
1!
#25251891
1-
#25259138
0&
#25300000
0!
#25301891
0-
#25350000
1!
#25351891
1-
#25400000
0!
#25401891
0-
#25450000
1!
#25451891
1-
#25500000
0!
#25501891
0-
#25550000
1!
#25551891
1-
#25600000
0!
#25601891
0-
#25650000
1!
#25651891
1-
#25700000
0!
#25701891
0-
#25750000
1!
#25751891
1-
#25800000
0!
#25801891
0-
#25850000
1!
#25851891
1-
#25855912
rUndefined ,
#25858024
rpr_state.FETCH ,
#25858041
b1000 )
#25859138
1&
#25862227
b1110100010000010 '
#25863544
b1110100010001010 '
#25864492
b110100010001010 '
#25864749
b1000000 %
#25864872
b100100010001010 '
#25865789
b100100010001000 '
#25866052
b100010001000 '
#25900000
0!
#25901891
0-
#25950000
1!
#25951891
1-
#26000000
0!
#26001891
0-
#26050000
1!
#26051891
1-
#26100000
0!
#26101891
0-
#26150000
1!
#26151891
1-
#26200000
0!
#26201891
0-
#26250000
1!
#26251891
1-
#26300000
0!
#26301891
0-
#26350000
1!
#26351891
1-
#26400000
0!
#26401891
0-
#26450000
1!
#26451891
1-
#26459138
0&
#26500000
0!
#26501891
0-
#26550000
1!
#26551891
1-
#26600000
0!
#26601891
0-
#26650000
1!
#26651891
1-
#26700000
0!
#26701891
0-
#26750000
1!
#26751891
1-
#26800000
0!
#26801891
0-
#26850000
1!
#26851891
1-
#26900000
0!
#26901891
0-
#26950000
1!
#26951891
1-
#27000000
0!
#27001891
0-
#27050000
1!
#27051891
1-
#27055912
rUndefined ,
#27058002
b100100000000000000000000000001 +
#27058003
b100100000000000000000000000011 +
#27058011
b100100000000000000000000000010 +
#27058022
b100000000000000000000000010 +
#27058024
b10 +
#27058034
b1000000000000000000000000010 +
#27058041
b1100 )
#27058045
rpr_state.DECODE ,
#27059138
1&
#27062227
b10001000 '
#27063429
b1000010001000 '
#27063544
b1000010000000 '
#27064749
b11000000 %
#27065027
b1000000000000 '
#27065318
b1000000010000 '
#27066216
b1000000011000 '
#27100000
0!
#27101891
0-
#27150000
1!
#27151891
1-
#27200000
0!
#27201891
0-
#27250000
1!
#27251891
1-
#27300000
0!
#27301891
0-
#27350000
1!
#27351891
1-
#27400000
0!
#27401891
0-
#27450000
1!
#27451891
1-
#27500000
0!
#27501891
0-
#27550000
1!
#27551891
1-
#27600000
0!
#27601891
0-
#27650000
1!
#27651891
1-
#27659138
0&
#27700000
0!
#27701891
0-
#27750000
1!
#27751891
1-
#27800000
0!
#27801891
0-
#27850000
1!
#27851891
1-
#27900000
0!
#27901891
0-
#27950000
1!
#27951891
1-
#28000000
0!
#28001891
0-
#28050000
1!
#28051891
1-
#28100000
0!
#28101891
0-
#28150000
1!
#28151891
1-
#28200000
0!
#28201891
0-
#28250000
1!
#28251891
1-
#28258002
b1000000001000000000000000010 +
#28258003
b1000000001000000000000000000 +
#28258011
b1000000001000000000000000001 +
#28258022
b101000000001000000000000000001 +
#28258024
b101100000001000000000000000001 +
rUndefined ,
#28258034
b100100000001000000000000000001 +
#28258045
rpr_state.JUMP ,
#28259138
1&
#28264492
b1001000000011000 '
#28264872
b1011000000011000 '
#28265318
b1011000000001000 '
#28265758
b1010000000001000 '
#28265789
b1010000000001010 '
#28266052
b1110000000001010 '
#28266216
b1110000000000010 '
#28267356
b1110000010000010 '
#28300000
0!
#28301891
0-
#28350000
1!
#28351891
1-
#28400000
0!
#28401891
0-
